Debug information for file: javali_tests/A4/CallParamField.javali
AST Resulting From Parsing Stage:
ClassDecl (name: A, superClass: Object)
| VarDecl (name: i, type: int)
| MethodDecl (argumentNames: [p], argumentTypes: [int], name: foo, returnType: void)
| | Seq ()
| | Seq ()
| | | BuiltInWrite ()
| | | | Var (name: p)
| | | BuiltInWrite ()
| | | | Var (name: i)
| | | BuiltInWriteln ()
ClassDecl (name: Main, superClass: Object)
| MethodDecl (argumentNames: [], argumentTypes: [], name: main, returnType: void)
| | Seq ()
| | | VarDecl (name: a, type: A)
| | Seq ()
| | | Assign ()
| | | | Var (name: a)
| | | | NewObject (typeName: A)
| | | Assign ()
| | | | Field (fieldName: i)
| | | | | Var (name: a)
| | | | IntConst (value: 10)
| | | MethodCall (methodName: foo)
| | | | Var (name: a)
| | | | IntConst (value: 1)
| | | MethodCall (methodName: foo)
| | | | Var (name: a)
| | | | IntConst (value: 2)
| | | MethodCall (methodName: foo)
| | | | Var (name: a)
| | | | IntConst (value: 3)

Test failed because an exception was thrown:
    Executing assembler failed.
Output:
0  0x10ce61724  __assert_rtn + 144
1  0x10ce7ccd4  mach_o::relocatable::Parser<x86>::parse(mach_o::relocatable::ParserOptions const&) + 2900
2  0x10ce6b53e  mach_o::relocatable::Parser<x86>::parse(unsigned char const*, unsigned long long, char const*, long, ld::File::Ordinal, mach_o::relocatable::ParserOptions const&) + 328
3  0x10ce676a7  mach_o::relocatable::parse(unsigned char const*, unsigned long long, char const*, long, ld::File::Ordinal, mach_o::relocatable::ParserOptions const&) + 103
4  0x10cea7d83  ld::tool::InputFiles::makeFile(Options::FileInfo const&, bool) + 571
5  0x10cea9a33  ld::tool::InputFiles::parseWorkerThread() + 285
6  0x7fff8a51c899  _pthread_body + 138
7  0x7fff8a51c72a  _pthread_struct_init + 0
A linker snapshot was created at:
	/tmp/CallParamField.javali.bin-2014-00-03-013146.ld-snapshot
ld: Assertion failed: (_file->_atomsArrayCount == computedAtomCount && "more atoms allocated than expected"), function parse, file /SourceCache/ld64/ld64-224.1/src/ld/parsers/macho_relocatable_file.cpp, line 1672.
clang: error: linker command failed with exit code 1 (use -v to see invocation)

Stack trace:
cd.exceptions.AssemblyFailedException: Executing assembler failed.
Output:
0  0x10ce61724  __assert_rtn + 144
1  0x10ce7ccd4  mach_o::relocatable::Parser<x86>::parse(mach_o::relocatable::ParserOptions const&) + 2900
2  0x10ce6b53e  mach_o::relocatable::Parser<x86>::parse(unsigned char const*, unsigned long long, char const*, long, ld::File::Ordinal, mach_o::relocatable::ParserOptions const&) + 328
3  0x10ce676a7  mach_o::relocatable::parse(unsigned char const*, unsigned long long, char const*, long, ld::File::Ordinal, mach_o::relocatable::ParserOptions const&) + 103
4  0x10cea7d83  ld::tool::InputFiles::makeFile(Options::FileInfo const&, bool) + 571
5  0x10cea9a33  ld::tool::InputFiles::parseWorkerThread() + 285
6  0x7fff8a51c899  _pthread_body + 138
7  0x7fff8a51c72a  _pthread_struct_init + 0
A linker snapshot was created at:
	/tmp/CallParamField.javali.bin-2014-00-03-013146.ld-snapshot
ld: Assertion failed: (_file->_atomsArrayCount == computedAtomCount && "more atoms allocated than expected"), function parse, file /SourceCache/ld64/ld64-224.1/src/ld/parsers/macho_relocatable_file.cpp, line 1672.
clang: error: linker command failed with exit code 1 (use -v to see invocation)

	at cd.test.AbstractTestSamplePrograms.testCodeGenerator(AbstractTestSamplePrograms.java:231)
	at cd.test.AbstractTestSamplePrograms.test(AbstractTestSamplePrograms.java:128)
	at sun.reflect.NativeMethodAccessorImpl.invoke0(Native Method)
	at sun.reflect.NativeMethodAccessorImpl.invoke(NativeMethodAccessorImpl.java:57)
	at sun.reflect.DelegatingMethodAccessorImpl.invoke(DelegatingMethodAccessorImpl.java:43)
	at java.lang.reflect.Method.invoke(Method.java:601)
	at org.junit.internal.runners.TestMethod.invoke(TestMethod.java:59)
	at org.junit.internal.runners.MethodRoadie.runTestMethod(MethodRoadie.java:98)
	at org.junit.internal.runners.MethodRoadie$2.run(MethodRoadie.java:79)
	at org.junit.internal.runners.MethodRoadie.runBeforesThenTestThenAfters(MethodRoadie.java:87)
	at org.junit.internal.runners.MethodRoadie.runTest(MethodRoadie.java:77)
	at org.junit.internal.runners.MethodRoadie.run(MethodRoadie.java:42)
	at org.junit.internal.runners.JUnit4ClassRunner.invokeTestMethod(JUnit4ClassRunner.java:88)
	at org.junit.internal.runners.JUnit4ClassRunner.runMethods(JUnit4ClassRunner.java:51)
	at org.junit.runners.Parameterized$TestClassRunnerForParameters.run(Parameterized.java:98)
	at org.junit.internal.runners.CompositeRunner.runChildren(CompositeRunner.java:33)
	at org.junit.runners.Parameterized.access$000(Parameterized.java:55)
	at org.junit.runners.Parameterized$1.run(Parameterized.java:131)
	at org.junit.internal.runners.ClassRoadie.runUnprotected(ClassRoadie.java:27)
	at org.junit.internal.runners.ClassRoadie.runProtected(ClassRoadie.java:37)
	at org.junit.runners.Parameterized.run(Parameterized.java:129)
	at org.junit.internal.runners.CompositeRunner.runChildren(CompositeRunner.java:33)
	at org.junit.internal.runners.CompositeRunner.run(CompositeRunner.java:28)
	at org.junit.runner.JUnitCore.run(JUnitCore.java:130)
	at org.junit.runner.JUnitCore.run(JUnitCore.java:109)
	at org.junit.runner.JUnitCore.run(JUnitCore.java:100)
	at org.junit.runner.JUnitCore.runMain(JUnitCore.java:81)
	at org.junit.runner.JUnitCore.main(JUnitCore.java:44)
