ClassDecl (name: Main, superClass: Object)
| MethodDecl (argumentNames: [], argumentTypes: [], name: main, returnType: void)
| | Seq ()
| | | VarDecl (name: a, type: int)
| | | VarDecl (name: b, type: int)
| | Seq ()
| | | BuiltInWrite ()
| | | | BinaryOp (operator: B_DIV)
| | | | | Var (name: a)
| | | | | Var (name: b)
