ClassDecl (name: Main, superClass: Object)
| VarDecl (name: b, type: B)
| VarDecl (name: a, type: Object)
| MethodDecl (argumentNames: [], argumentTypes: [], name: main, returnType: void)
| | Seq ()
| | Seq ()
| | | Assign ()
| | | | Var (name: a)
| | | | Cast (typeName: A)
| | | | | Var (name: b)
ClassDecl (name: A, superClass: Object)
ClassDecl (name: B, superClass: A)
