ClassDecl (name: Main, superClass: Object)
| MethodDecl (argumentNames: [], argumentTypes: [], name: main, returnType: void)
| | Seq ()
| | | VarDecl (name: a, type: int)
| | Seq ()
| | | IfElse ()
| | | | Var (name: a)
| | | | Seq ()
| | | | | Assign ()
| | | | | | Var (name: a)
| | | | | | IntConst (value: 0)
| | | | Nop ()
