ClassDecl (name: Main, superClass: Object)
| MethodDecl (argumentNames: [], argumentTypes: [], name: main, returnType: void)
| | Seq ()
| | | VarDecl (name: a, type: boolean)
| | | VarDecl (name: b, type: boolean)
| | | VarDecl (name: c, type: boolean)
| | | VarDecl (name: d, type: boolean[])
| | Seq ()
| | | Assign ()
| | | | Var (name: b)
| | | | BinaryOp (operator: B_OR)
| | | | | Var (name: a)
| | | | | UnaryOp (operator: U_BOOL_NOT)
| | | | | | Index ()
| | | | | | | Var (name: d)
| | | | | | | IntConst (value: 0)
