Debug information for file: javali_tests/A3_team/checkIfBoolean3.javali
AST Resulting From Parsing Stage:
ClassDecl (name: Main, superClass: Object)
| MethodDecl (argumentNames: [], argumentTypes: [], name: main, returnType: void)
| | Seq ()
| | | VarDecl (name: a, type: boolean)
| | Seq ()
| | | IfElse ()
| | | | Cast (typeName: A)
| | | | | Var (name: a)
| | | | Seq ()
| | | | | Assign ()
| | | | | | Var (name: a)
| | | | | | BooleanConst (value: true)
| | | | Nop ()
ClassDecl (name: A, superClass: Object)
Error message from reference is: Types boolean and A in cast are completely unrelated.

Test failed because an exception was thrown:
    null
Stack trace:
java.lang.NullPointerException
	at cd.semantic.SemanticVisitor.typeExists(SemanticVisitor.java:572)
	at cd.semantic.SemanticVisitor.cast(SemanticVisitor.java:410)
	at cd.semantic.SemanticVisitor.cast(SemanticVisitor.java:1)
	at cd.ir.Ast$Cast.accept(Ast.java:206)
	at cd.ir.ExprVisitor.visit(ExprVisitor.java:15)
	at cd.semantic.SemanticVisitor.ifElse(SemanticVisitor.java:349)
	at cd.semantic.SemanticVisitor.ifElse(SemanticVisitor.java:1)
	at cd.ir.Ast$IfElse.accept(Ast.java:538)
	at cd.ir.AstVisitor.visit(AstVisitor.java:16)
	at cd.ir.AstVisitor.visitChildren(AstVisitor.java:28)
	at cd.ir.AstVisitor.dflt(AstVisitor.java:37)
	at cd.ir.AstVisitor.seq(AstVisitor.java:104)
	at cd.ir.Ast$Seq.accept(Ast.java:732)
	at cd.ir.AstVisitor.visit(AstVisitor.java:16)
	at cd.ir.AstVisitor.visitChildren(AstVisitor.java:28)
	at cd.semantic.SemanticVisitor.methodDecl(SemanticVisitor.java:178)
	at cd.semantic.SemanticVisitor.methodDecl(SemanticVisitor.java:1)
	at cd.ir.Ast$MethodDecl.accept(Ast.java:775)
	at cd.ir.AstVisitor.visit(AstVisitor.java:16)
	at cd.ir.AstVisitor.visitChildren(AstVisitor.java:28)
	at cd.ir.AstVisitor.dflt(AstVisitor.java:37)
	at cd.ir.AstVisitor.dfltDecl(AstVisitor.java:56)
	at cd.ir.AstVisitor.classDecl(AstVisitor.java:76)
	at cd.ir.Ast$ClassDecl.accept(Ast.java:810)
	at cd.ir.AstVisitor.visit(AstVisitor.java:16)
	at cd.semantic.SemanticVisitor.check(SemanticVisitor.java:67)
	at cd.semantic.SemanticAnalyzer.check(SemanticAnalyzer.java:59)
	at cd.Main.semanticCheck(Main.java:122)
	at cd.test.AbstractTestSamplePrograms.testSemanticAnalyzer(AbstractTestSamplePrograms.java:186)
	at cd.test.AbstractTestSamplePrograms.test(AbstractTestSamplePrograms.java:125)
	at sun.reflect.NativeMethodAccessorImpl.invoke0(Native Method)
	at sun.reflect.NativeMethodAccessorImpl.invoke(NativeMethodAccessorImpl.java:57)
	at sun.reflect.DelegatingMethodAccessorImpl.invoke(DelegatingMethodAccessorImpl.java:43)
	at java.lang.reflect.Method.invoke(Method.java:601)
	at org.junit.internal.runners.TestMethod.invoke(TestMethod.java:59)
	at org.junit.internal.runners.MethodRoadie.runTestMethod(MethodRoadie.java:98)
	at org.junit.internal.runners.MethodRoadie$2.run(MethodRoadie.java:79)
	at org.junit.internal.runners.MethodRoadie.runBeforesThenTestThenAfters(MethodRoadie.java:87)
	at org.junit.internal.runners.MethodRoadie.runTest(MethodRoadie.java:77)
	at org.junit.internal.runners.MethodRoadie.run(MethodRoadie.java:42)
	at org.junit.internal.runners.JUnit4ClassRunner.invokeTestMethod(JUnit4ClassRunner.java:88)
	at org.junit.internal.runners.JUnit4ClassRunner.runMethods(JUnit4ClassRunner.java:51)
	at org.junit.runners.Parameterized$TestClassRunnerForParameters.run(Parameterized.java:98)
	at org.junit.internal.runners.CompositeRunner.runChildren(CompositeRunner.java:33)
	at org.junit.runners.Parameterized.access$000(Parameterized.java:55)
	at org.junit.runners.Parameterized$1.run(Parameterized.java:131)
	at org.junit.internal.runners.ClassRoadie.runUnprotected(ClassRoadie.java:27)
	at org.junit.internal.runners.ClassRoadie.runProtected(ClassRoadie.java:37)
	at org.junit.runners.Parameterized.run(Parameterized.java:129)
	at org.junit.internal.runners.CompositeRunner.runChildren(CompositeRunner.java:33)
	at org.junit.internal.runners.CompositeRunner.run(CompositeRunner.java:28)
	at org.junit.runner.JUnitCore.run(JUnitCore.java:130)
	at org.junit.runner.JUnitCore.run(JUnitCore.java:109)
	at org.junit.runner.JUnitCore.run(JUnitCore.java:100)
	at org.junit.runner.JUnitCore.runMain(JUnitCore.java:81)
	at org.junit.runner.JUnitCore.main(JUnitCore.java:44)
