ClassDecl (name: Main, superClass: Object)
| MethodDecl (argumentNames: [], argumentTypes: [], name: main, returnType: void)
| | Seq ()
| | Seq ()
| MethodDecl (argumentNames: [], argumentTypes: [], name: nestedIf, returnType: int)
| | Seq ()
| | | VarDecl (name: a, type: boolean)
| | Seq ()
| | | Assign ()
| | | | Var (name: a)
| | | | BooleanConst (value: true)
| | | IfElse ()
| | | | BinaryOp (operator: B_EQUAL)
| | | | | Var (name: a)
| | | | | BooleanConst (value: true)
| | | | Seq ()
| | | | | ReturnStmt ()
| | | | | | IntConst (value: 1)
| | | | Nop ()
