ClassDecl (name: A, superClass: Object)
| VarDecl (name: c, type: C)
| MethodDecl (argumentNames: [], argumentTypes: [], name: run, returnType: void)
| | Seq ()
| | Seq ()
| | | Assign ()
| | | | Field (fieldName: m)
| | | | | Var (name: c)
| | | | BinaryOp (operator: B_PLUS)
| | | | | Field (fieldName: m)
| | | | | | Var (name: c)
| | | | | IntConst (value: 10)
ClassDecl (name: B, superClass: A)
| VarDecl (name: c, type: D)
| VarDecl (name: z, type: int)
| MethodDecl (argumentNames: [], argumentTypes: [], name: run, returnType: void)
| | Seq ()
| | Seq ()
| | | Assign ()
| | | | Field (fieldName: m)
| | | | | Var (name: c)
| | | | BinaryOp (operator: B_PLUS)
| | | | | Field (fieldName: m)
| | | | | | Var (name: c)
| | | | | IntConst (value: 10)
ClassDecl (name: Main, superClass: Object)
| MethodDecl (argumentNames: [], argumentTypes: [], name: main, returnType: void)
| | Seq ()
| | | VarDecl (name: a, type: A)
| | | VarDecl (name: b, type: B)
| | | VarDecl (name: c, type: C)
| | Seq ()
| | | Assign ()
| | | | Var (name: a)
| | | | NewObject (typeName: A)
| | | Assign ()
| | | | Var (name: b)
| | | | NewObject (typeName: B)
| | | Assign ()
| | | | Field (fieldName: c)
| | | | | Var (name: b)
| | | | NewObject (typeName: D)
| | | MethodCall (methodName: subRun)
| | | | Field (fieldName: c)
| | | | | Var (name: b)
| | | MethodCall (methodName: run)
| | | | Var (name: b)
| | | BuiltInWrite ()
| | | | Field (fieldName: m)
| | | | | Field (fieldName: c)
| | | | | | Var (name: b)
| | | Assign ()
| | | | Var (name: a)
| | | | Cast (typeName: A)
| | | | | Var (name: b)
| | | Assign ()
| | | | Field (fieldName: c)
| | | | | Var (name: a)
| | | | Cast (typeName: C)
| | | | | Field (fieldName: c)
| | | | | | Var (name: b)
| | | MethodCall (methodName: subRun)
| | | | Field (fieldName: c)
| | | | | Var (name: a)
| | | MethodCall (methodName: run)
| | | | Var (name: a)
| | | BuiltInWrite ()
| | | | Field (fieldName: m)
| | | | | Field (fieldName: c)
| | | | | | Var (name: a)
ClassDecl (name: C, superClass: Object)
| VarDecl (name: m, type: int)
| MethodDecl (argumentNames: [], argumentTypes: [], name: subRun, returnType: void)
| | Seq ()
| | Seq ()
| | | Assign ()
| | | | Var (name: m)
| | | | IntConst (value: 0)
ClassDecl (name: D, superClass: C)
| MethodDecl (argumentNames: [], argumentTypes: [], name: subRun, returnType: void)
| | Seq ()
| | Seq ()
| | | Assign ()
| | | | Var (name: m)
| | | | IntConst (value: 10)
