ClassDecl (name: Main, superClass: Object, sym: Main)
| MethodDecl (argumentNames: [], argumentTypes: [], name: main, returnType: void, sym: main(...))
| | Seq ()
| | | VarDecl (name: a, sym: a, type: int)
| | | VarDecl (name: b, sym: b, type: int)
| | | VarDecl (name: c, sym: c, type: int)
| | | VarDecl (name: d, sym: d, type: int)
| | | VarDecl (name: e, sym: e, type: int)
| | | VarDecl (name: f, sym: f, type: int)
| | | VarDecl (name: g, sym: g, type: int)
| | | VarDecl (name: h, sym: h, type: int)
| | Seq ()
| | | Assign ()
| | | | Var (name: a, sym: a, type: int)
| | | | BuiltInRead (type: int)
| | | Assign ()
| | | | Var (name: b, sym: b, type: int)
| | | | BuiltInRead (type: int)
| | | Assign ()
| | | | Var (name: c, sym: c, type: int)
| | | | BuiltInRead (type: int)
| | | Assign ()
| | | | Var (name: g, sym: g, type: int)
| | | | IntConst (type: int, value: 0)
| | | Assign ()
| | | | Var (name: h, sym: h, type: int)
| | | | IntConst (type: int, value: 0)
| | | IfElse ()
| | | | BinaryOp (operator: B_EQUAL, type: boolean)
| | | | | Var (name: a, sym: a, type: int)
| | | | | Var (name: b, sym: b, type: int)
| | | | Seq ()
| | | | | Assign ()
| | | | | | Var (name: c, sym: c, type: int)
| | | | | | BinaryOp (operator: B_PLUS, type: int)
| | | | | | | Var (name: c, sym: c, type: int)
| | | | | | | IntConst (type: int, value: 1)
| | | | Seq ()
| | | | | BuiltInWrite ()
| | | | | | IntConst (type: int, value: 1)
| | | WhileLoop ()
| | | | BinaryOp (operator: B_LESS_THAN, type: boolean)
| | | | | Var (name: g, sym: g, type: int)
| | | | | IntConst (type: int, value: 5)
| | | | Seq ()
| | | | | BuiltInWrite ()
| | | | | | Var (name: h, sym: h, type: int)
| | | | | Assign ()
| | | | | | Var (name: h, sym: h, type: int)
| | | | | | BinaryOp (operator: B_PLUS, type: int)
| | | | | | | Var (name: h, sym: h, type: int)
| | | | | | | IntConst (type: int, value: 1)
| | | | | Assign ()
| | | | | | Var (name: g, sym: g, type: int)
| | | | | | BinaryOp (operator: B_PLUS, type: int)
| | | | | | | Var (name: g, sym: g, type: int)
| | | | | | | IntConst (type: int, value: 1)
| | | BuiltInWrite ()
| | | | Var (name: c, sym: c, type: int)
